{
    "cs":{
        "name":"Czech",
        "nativeName":"česky, čeština"
    },
    "da":{
        "name":"Danish",
        "nativeName":"dansk"
    },
    "en":{
        "name":"English",
        "nativeName":"English"
    },
    "fi":{
        "name":"Finnish",
        "nativeName":"suomi, suomen kieli"
    },
    "fr":{
        "name":"French",
        "nativeName":"français, langue française"
    },
    "de":{
        "name":"German",
        "nativeName":"Deutsch"
    },
    "pl":{
        "name":"Polish",
        "nativeName":"polski"
    },
    "ru":{
        "name":"Russian",
        "nativeName":"русский язык"
    }
}
